Beer Reviews Analysis 1
…
I sort beers in descending order by regression equation results and include the top 10 in a table of finalists to consider.

Q3_detail <- Reviews7 %>% select(beer_name, 'reviews_#', beer_style, beer_abv, brewery_name) %>% distinct()

Reviews7_Reg2 <- Reviews7 %>% mutate(fitted_y = 0.5044987 + 0.0339343*review_appearance + 0.0406966*review_aroma + 0.5452705*review_taste + 0.256404*review_palate) %>% mutate(resid = fitted_y - review_overall)

Q3_summary <- Q3_summary <- Reviews7_Reg2 %>% select(beer_name, review_overall, TBR, fitted_y)%>% group_by(beer_name) %>% summarise(mean_regression2 = mean(fitted_y), mean_review_overall = mean(review_overall), mean_TBR = mean(TBR))

Q3_summary_detail <- left_join(Q3_summary, Q3_detail) %>% arrange(desc(mean_regression2))

## Joining, by = "beer_name"

head(Q3_summary_detail,40)

## # A tibble: 40 x 8
##                                  beer_name mean_regression2
##                                     <fctr>            <dbl>
##  1      Armand'4 Oude Geuze Lente (Spring)         4.626645
##  2               Rare Bourbon County Stout         4.616316
##  3             Vanilla Bean Aged Dark Lord         4.614530
##  4                       Pliny The Younger         4.607651
##  5                Trappist Westvleteren 12         4.603042
##  6                 Kaggen! Stormaktsporter         4.586494
##  7             Founders CBS Imperial Stout         4.576553
##  8 Deviation - Bottleworks 9th Anniversary         4.566885
##  9                             Veritas 004         4.534971
## 10                              King Henry         4.528340
## # ... with 30 more rows, and 6 more variables: mean_review_overall <dbl>,
## #   mean_TBR <dbl>, `reviews_#` <int>, beer_style <fctr>, beer_abv <dbl>,
## #   brewery_name <fctr>
…
